<?xml version="1.0" encoding="UTF-8" standalone="no"?>
<!-- Created with Inkscape (http://www.inkscape.org/) -->

<svg
   width="1024.0px"
   height="1024.0px"
   viewBox="0 0 1024.0 1024.0"
   version="1.1"
   id="SVGRoot"
   sodipodi:docname="favicon.svg"
   inkscape:version="1.2.1 (9c6d41e410, 2022-07-14)"
   inkscape:export-filename="..\..\Users\raoja\Desktop\softaloossi.fi\public\favicon.png"
   inkscape:export-xdpi="1.5"
   inkscape:export-ydpi="1.5"
   xmlns:inkscape="http://www.inkscape.org/namespaces/inkscape"
   xmlns:sodipodi="http://sodipodi.sourceforge.net/DTD/sodipodi-0.dtd"
   xmlns="http://www.w3.org/2000/svg"
   xmlns:svg="http://www.w3.org/2000/svg">
  <sodipodi:namedview
     id="namedview1497"
     pagecolor="#ffffff"
     bordercolor="#000000"
     borderopacity="0.25"
     inkscape:showpageshadow="2"
     inkscape:pageopacity="0.0"
     inkscape:pagecheckerboard="0"
     inkscape:deskcolor="#d1d1d1"
     inkscape:document-units="px"
     showgrid="true"
     inkscape:zoom="0.38083965"
     inkscape:cx="477.89142"
     inkscape:cy="420.12433"
     inkscape:window-width="1920"
     inkscape:window-height="1009"
     inkscape:window-x="-8"
     inkscape:window-y="-8"
     inkscape:window-maximized="1"
     inkscape:current-layer="layer1">
    <inkscape:grid
       type="xygrid"
       id="grid1503" />
  </sodipodi:namedview>
  <defs
     id="defs1492" />
  <g
     inkscape:label="Layer 1"
     inkscape:groupmode="layer"
     id="layer1">
    <path
       id="rect1809-3"
       style="fill:#e7455b;fill-opacity:1;stroke-width:2.3654"
       d="m 272.98558,636.33198 0.65644,100.76493 h 207.92926 l 1.96934,242.35881 h -81.78036 l 0.0307,43.81548 220.77902,-0.6564 -0.0307,-44.32218 h -80.37037 l -1.96934,-242.36456 212.00342,0.65644 -0.65644,-100.25252 z"
       inkscape:export-filename="..\public\favicon.png"
       inkscape:export-xdpi="96"
       inkscape:export-ydpi="96"
       sodipodi:nodetypes="ccccccccccccc" />
    <path
       id="rect1530-6"
       style="fill:#e7455b;fill-opacity:1;stroke-width:2.53794"
       d="M 2.0705632,430.42116 V 1023.3482 H 325.48486 V 808.76811 L 143.45688,798.01663 98.091076,430.42116 Z" />
    <path
       id="rect1530-6-5"
       style="fill:#e7455b;fill-opacity:1;stroke-width:2.53794"
       d="M 1023.6491,430.18963 V 1023.1167 H 700.23483 V 808.53658 l 182.02798,-10.75148 45.3658,-367.59547 z" />
    <rect
       style="fill:#e7455b;fill-opacity:1;stroke-width:4.11108"
       id="rect726"
       width="642.98004"
       height="483.32703"
       x="195.41048"
       y="39.870407"
       inkscape:export-filename="..\..\Users\raoja\Desktop\softaloossi.fi\public\favicon.png"
       inkscape:export-xdpi="1.8301644"
       inkscape:export-ydpi="1.8301644" />
    <rect
       style="fill:#2b2434;fill-opacity:1;stroke-width:0.706667"
       id="rect1740"
       width="417.49854"
       height="295.96008"
       x="312.4675"
       y="129.97597" />
  </g>
</svg>
